…
The data sets created above were done to clearly determine, on both a
by-player and by-team basis, whether or not the Houston Astros’ batting
averages and on-base percentages were adversely affected between the
fallout after the 2019 season and the 2020 season.

``` r
astros_summary # Note that a negative difference means that a player improved from 2019 to 2020
```

    ## # A tibble: 22 x 3
    ##    Name             OBP_diff AVG_diff
    ##    <chr>               <dbl>    <dbl>
    ##  1 Martin Maldonado  -0.0570  -0.002 
    ##  2 Yuli Gurriel       0.069    0.0660
    ##  3 Jose Altuve        0.067    0.0790
    ##  4 Carlos Correa      0.0320   0.015 
    ##  5 Alex Bregman       0.073    0.0540
    ##  6 Kyle Tucker       -0.006   -0.112 
    ##  7 George Springer    0.024   -0.04  
    ##  8 Josh Reddick       0.003    0.03  
    ##  9 Michael Brantley   0.008    0.011 
    ## 10 Abraham Toro       0.066    0.069 
    ## # ... with 12 more rows
…
